CPU_exercices/TRACE.vcd
$var reg 	5 !	PC.pc_out  $end
$enddefinitions $end 
$enddefinitions $end 
#2
b00001 !
#3
b00010 !
#4
b00011 !
#5
b00100 !
#6
b00101 !
#7
b00110 !
#8
b00111 !
#9
b01000 !
#10
b01001 !
#11
b01010 !
#12
b01011 !
#13
b01100 !
#14
b01101 !
#15
b01110 !
#16
b01111 !
#17
b10000 !
#18
b10001 !
#19
b10010 !
#20
b10011 !
#21
b10100 !
#22
b10101 !
#23
b10110 !
#24
b10111 !
#25
b11000 !
#26
b11001 !
#27
b11010 !
#28
b11011 !
#29
b11100 !
#30
b11101 !
#31
b11110 !
#32
b11111 !
#33
b00000 !
#34
b00001 !
#35
b00010 !
#36
b00011 !
#37
b00100 !
#38
b00101 !
#39
b00110 !
#40
b00111 !
#41
b01000 !
#42
b01001 !
#43
b01010 !
#44
b01011 !
#45
b01100 !
#46
b01101 !
#47
b01110 !
#48
b01111 !
#49
b10000 !
#50
b10001 !
#51
b10010 !
#52
b10011 !
#53
b10100 !
#54
b10101 !
#55
b10110 !
#56
b10111 !
#57
b11000 !
#58
b11001 !
#59
b11010 !
#60
b11011 !
#61
b11100 !
#62
b11101 !
#63
b11110 !
#64
b11111 !
